1. Modeling workflow with adm • adm
…
# Species training area
sp_train_a <- system.file("external/cretusa_calib_area.gpkg", package = "adm")
sp_train_a <- terra::vect(sp_train_a)

Let’s explore these data

# Species data
# ?cretusa_data
cretusa_data # species dat
#> # A tibble: 366 × 5
#>    species           ind_ha     x     y .part
#>    <chr>              <int> <dbl> <dbl> <int>
#>  1 Cynophalla retusa     10 -64.5 -22.7     1
#>  2 Cynophalla retusa     10 -64.1 -22.7     1
#>  3 Cynophalla retusa     20 -64.7 -23.1     2
#>  4 Cynophalla retusa      0 -62.6 -23.2     3
#>  5 Cynophalla retusa      0 -61.7 -24.5     3
#>  6 Cynophalla retusa      0 -61.6 -25.0     3
#>  7 Cynophalla retusa      0 -61.2 -24.5     3
#>  8 Cynophalla retusa      0 -64.9 -23.8     2
#>  9 Cynophalla retusa      0 -65.3 -24.4     3
#> 10 Cynophalla retusa      0 -64.7 -24.8     1
#> # ℹ 356 more rows
…
species_data <- adm_extract(
  data = cretusa_data, # georeferenced dataframe
  x = "x", # spatial x coordinates
  y = "y", # spatial y coordinates
  env_layer = cretusa_predictors, # raster with environmental variables
  variables = NULL, # return data for all layers
  filter_na = TRUE
)

species_data
#> # A tibble: 366 × 12
#>    species    ind_ha     x     y .part    PC1    PC2    PC3   PC4    PC5     PC6
#>    <chr>       <int> <dbl> <dbl> <int>  <dbl>  <dbl>  <dbl> <dbl>  <dbl>   <dbl>
#>  1 Cynophall…     10 -64.5 -22.7     1  1.50  -1.28   0.773 0.784 -0.249 -0.559 
#>  2 Cynophall…     10 -64.1 -22.7     1  0.750 -1.22   1.36  0.359 -0.434 -0.742 
#>  3 Cynophall…     20 -64.7 -23.1     2  1.21  -1.82   1.36  0.336 -0.862  0.0878
#>  4 Cynophall…      0 -62.6 -23.2     3 -1.71  -2.85  -1.34  0.762 -0.745 -1.02  
#>  5 Cynophall…      0 -61.7 -24.5     3 -1.65  -2.17  -1.68  0.175 -0.839 -0.637 
#>  6 Cynophall…      0 -61.6 -25.0     3 -1.29  -2.35  -1.94  0.614 -0.944 -0.805 
#>  7 Cynophall…      0 -61.2 -24.5     3 -0.904 -2.73  -2.30  1.05  -0.604 -0.830 
#>  8 Cynophall…      0 -64.9 -23.8     2  0.676 -1.57   0.401 1.54  -0.346 -0.417 
#>  9 Cynophall…      0 -65.3 -24.4     3  0.460 -0.795  0.409 2.19  -0.172 -0.249 
#> 10 Cynophall…      0 -64.7 -24.8     1  1.18   0.201  0.606 2.65  -0.356 -0.775 
#> # ℹ 356 more rows
#> # ℹ 1 more variable: PC7 <dbl>

Notice that the new dataframe have one column for each environmental
variable (layers in raster). It is possible to extract data from
specific layers using “variables” argument in adm_extract. To
stabilize Deep Neural Networks training, we will transform response data
using “zscore” method.

species_data <- adm_transform(
  data = species_data,
  variable = "ind_ha",
  method = "zscore"
)

species_data %>% dplyr::select(ind_ha, ind_ha_zscore)
#> # A tibble: 366 × 2
#>    ind_ha ind_ha_zscore
#>     <int>         <dbl>
#>  1     10        0.0754
#>  2     10        0.0754
#>  3     20        0.802 
#>  4      0       -0.651 
#>  5      0       -0.651 
#>  6      0       -0.651 
#>  7      0       -0.651 
#>  8      0       -0.651 
#>  9      0       -0.651 
#> 10      0       -0.651 
#> # ℹ 356 more rows
…
The function returns a tibble with suitable families information. The
column “family_call” can be directly used in a grid.

If you are interested in exploring the attributes of the families for
GLM and GAM, you can use the families_bank database. For
further details about family distributions see
?gamlss.dist::gamlss.family.

fm <- system.file("external/families_bank.txt", package = "adm") %>%
  utils::read.delim(., header = TRUE, quote = "\t") %>%
  dplyr::as_tibble()
fm
#> # A tibble: 87 × 9
#>    family_name             family_call range no_parameters discrete accepts_zero
#>    <chr>                   <chr>       <chr>         <int>    <int>        <int>
#>  1 Beta                    BE          (0,1)             2        0            0
#>  2 Beta one inflated       BEOI        (0,1]             3        0            0
#>  3 Box-Cox Cole and Green  BCCG        (0, …             3        0            0
#>  4 Box-Cox Power Exponent… BCPE        (0, …             4        0            0
#>  5 Box-Cox-t               BCT         (0, …             4        0            0
#>  6 Exponential             EXP         (0, …             1        0            0
#>  7 Gamma                   GA          (0, …             2        0            0
#>  8 Generalized Beta type 1 GB1         (0,1)             4        0            0
#>  9 Generalized Beta type 2 GB2         (0, …             4        0            0
#> 10 Generalized Gamma       GG          (0, …             3        0            0
#> # ℹ 77 more rows
#> # ℹ 3 more variables: one_restricted <int>, accepts_one <int>,
#> #   accepts_negatives <int>
…
